26
0.360716049559
0.720011676662
0.0857518152334
0.493290760554
0.808575006668
0.880465768278
0.601449218113
0.0712623340078
0.220863576513
0.904907934368
0.581490801182
0.984700098168
0.882123510819
0.822474274319
0.316914722789
0.302999926731
0.839975031093
0.0950476494618
0.729829999618
0.651771797799
0.396918935701
0.366472559981
0.816737443209
0.663710361347
0.596458209213
0.179429817013